Lab 4
…
## # A tibble: 6 x 2
##   City         State 
##   <chr>        <chr> 
## 1 Cedar Rapids Iowa  
## 2 Nixa         Mo.   
## 3 Cedar Rapids Iowa  
## 4 League City  Texas 
## 5 Naperville   Ill.  
## 6 Walnut       Calif.

Above are the first few rows from the City and State columns.

bioClean %>% group_by(State) %>% summarize(n=n()) %>% print()

## # A tibble: 25 x 2
##    State         n
##    <chr>     <int>
##  1 Ariz.         3
##  2 Ark.          2
##  3 Australia     2
##  4 Calif.        8
##  5 D.C.          1
##  6 Fla.          8
##  7 Ga.           2
##  8 Ill.          5
##  9 Iowa         44
## 10 Kan.          3
## #  with 15 more rows
…
